^C:\USERS\NIKIT\DESKTOP\17208_DOLGOV\LABORATORY_WORK_3\LABORATORY_WORK_3\DEBUG\ANIMATIONS.OBJ|C:\USERS\NIKIT\DESKTOP\17208_DOLGOV\LABORATORY_WORK_3\LABORATORY_WORK_3\DEBUG\ARKANOID.OBJ|C:\USERS\NIKIT\DESKTOP\17208_DOLGOV\LABORATORY_WORK_3\LABORATORY_WORK_3\DEBUG\BASE_GAME_WINDOW.OBJ|C:\USERS\NIKIT\DESKTOP\17208_DOLGOV\LABORATORY_WORK_3\LABORATORY_WORK_3\DEBUG\BASE_WINDOW.OBJ|C:\USERS\NIKIT\DESKTOP\17208_DOLGOV\LABORATORY_WORK_3\LABORATORY_WORK_3\DEBUG\FIELD.OBJ|C:\USERS\NIKIT\DESKTOP\17208_DOLGOV\LABORATORY_WORK_3\LABORATORY_WORK_3\DEBUG\GAME.OBJ|C:\USERS\NIKIT\DESKTOP\17208_DOLGOV\LABORATORY_WORK_3\LABORATORY_WORK_3\DEBUG\INTELLIGENCE.OBJ|C:\USERS\NIKIT\DESKTOP\17208_DOLGOV\LABORATORY_WORK_3\LABORATORY_WORK_3\DEBUG\MAIN.OBJ|C:\USERS\NIKIT\DESKTOP\17208_DOLGOV\LABORATORY_WORK_3\LABORATORY_WORK_3\DEBUG\SHAPES.OBJ|C:\USERS\NIKIT\DESKTOP\17208_DOLGOV\LABORATORY_WORK_3\LABORATORY_WORK_3\DEBUG\TEXTURES.OBJ|C:\USERS\NIKIT\DESKTOP\17208_DOLGOV\LABORATORY_WORK_3\LABORATORY_WORK_3\DEBUG\USER.OBJ|C:\USERS\NIKIT\DESKTOP\17208_DOLGOV\LABORATORY_WORK_3\LABORATORY_WORK_3\DEBUG\VECTOR_2D.OBJ
/OUT:"C:\USERS\NIKIT\DESKTOP\17208_DOLGOV\LABORATORY_WORK_3\DEBUG\LABORATORY_WORK_3.EXE" /INCREMENTAL /NOLOGO KERNEL32.LIB USER32.LIB GDI32.LIB WINSPOOL.LIB COMDLG32.LIB ADVAPI32.LIB SHELL32.LIB OLE32.LIB OLEAUT32.LIB UUID.LIB ODBC32.LIB ODBCCP32.LIB /MANIFEST /MANIFESTUAC:"level='asInvoker' uiAccess='false'" /manifest:embed /DEBUG:FASTLINK /PDB:"C:\USERS\NIKIT\DESKTOP\17208_DOLGOV\LABORATORY_WORK_3\DEBUG\LABORATORY_WORK_3.PDB" /TLBID:1 /DYNAMICBASE /NXCOMPAT /IMPLIB:"C:\USERS\NIKIT\DESKTOP\17208_DOLGOV\LABORATORY_WORK_3\DEBUG\LABORATORY_WORK_3.LIB" /MACHINE:X86 DEBUG\GAME.OBJDEBUG\ARKANOID.OBJDEBUG\ANIMATIONS.OBJDEBUG\FIELD.OBJDEBUG\SHAPES.OBJDEBUG\TEXTURES.OBJDEBUG\USER.OBJDEBUG\BASE_GAME_WINDOW.OBJDEBUG\BASE_WINDOW.OBJDEBUG\INTELLIGENCE.OBJDEBUG\MAIN.OBJDEBUG\VECTOR_2D.OBJ
^C:\USERS\NIKIT\ONEDRIVE\РАБОЧИЙ СТОЛ\17208_DOLGOV\LABORATORY_WORK_3\LABORATORY_WORK_3\DEBUG\ANIMATIONS.OBJ|C:\USERS\NIKIT\ONEDRIVE\РАБОЧИЙ СТОЛ\17208_DOLGOV\LABORATORY_WORK_3\LABORATORY_WORK_3\DEBUG\ARKANOID.OBJ|C:\USERS\NIKIT\ONEDRIVE\РАБОЧИЙ СТОЛ\17208_DOLGOV\LABORATORY_WORK_3\LABORATORY_WORK_3\DEBUG\BASE_GAME_WINDOW.OBJ|C:\USERS\NIKIT\ONEDRIVE\РАБОЧИЙ СТОЛ\17208_DOLGOV\LABORATORY_WORK_3\LABORATORY_WORK_3\DEBUG\BASE_WINDOW.OBJ|C:\USERS\NIKIT\ONEDRIVE\РАБОЧИЙ СТОЛ\17208_DOLGOV\LABORATORY_WORK_3\LABORATORY_WORK_3\DEBUG\FIELD.OBJ|C:\USERS\NIKIT\ONEDRIVE\РАБОЧИЙ СТОЛ\17208_DOLGOV\LABORATORY_WORK_3\LABORATORY_WORK_3\DEBUG\GAME.OBJ|C:\USERS\NIKIT\ONEDRIVE\РАБОЧИЙ СТОЛ\17208_DOLGOV\LABORATORY_WORK_3\LABORATORY_WORK_3\DEBUG\INTELLIGENCE.OBJ|C:\USERS\NIKIT\ONEDRIVE\РАБОЧИЙ СТОЛ\17208_DOLGOV\LABORATORY_WORK_3\LABORATORY_WORK_3\DEBUG\MAIN.OBJ|C:\USERS\NIKIT\ONEDRIVE\РАБОЧИЙ СТОЛ\17208_DOLGOV\LABORATORY_WORK_3\LABORATORY_WORK_3\DEBUG\SHAPES.OBJ|C:\USERS\NIKIT\ONEDRIVE\РАБОЧИЙ СТОЛ\17208_DOLGOV\LABORATORY_WORK_3\LABORATORY_WORK_3\DEBUG\TEXTURES.OBJ|C:\USERS\NIKIT\ONEDRIVE\РАБОЧИЙ СТОЛ\17208_DOLGOV\LABORATORY_WORK_3\LABORATORY_WORK_3\DEBUG\USER.OBJ|C:\USERS\NIKIT\ONEDRIVE\РАБОЧИЙ СТОЛ\17208_DOLGOV\LABORATORY_WORK_3\LABORATORY_WORK_3\DEBUG\VECTOR_2D.OBJ
/OUT:"C:\USERS\NIKIT\ONEDRIVE\РАБОЧИЙ СТОЛ\17208_DOLGOV\LABORATORY_WORK_3\DEBUG\LABORATORY_WORK_3.EXE" /INCREMENTAL /NOLOGO KERNEL32.LIB USER32.LIB GDI32.LIB WINSPOOL.LIB COMDLG32.LIB ADVAPI32.LIB SHELL32.LIB OLE32.LIB OLEAUT32.LIB UUID.LIB ODBC32.LIB ODBCCP32.LIB /MANIFEST /MANIFESTUAC:"level='asInvoker' uiAccess='false'" /manifest:embed /DEBUG:FASTLINK /PDB:"C:\USERS\NIKIT\ONEDRIVE\РАБОЧИЙ СТОЛ\17208_DOLGOV\LABORATORY_WORK_3\DEBUG\LABORATORY_WORK_3.PDB" /TLBID:1 /DYNAMICBASE /NXCOMPAT /IMPLIB:"C:\USERS\NIKIT\ONEDRIVE\РАБОЧИЙ СТОЛ\17208_DOLGOV\LABORATORY_WORK_3\DEBUG\LABORATORY_WORK_3.LIB" /MACHINE:X86 DEBUG\GAME.OBJDEBUG\ARKANOID.OBJDEBUG\ANIMATIONS.OBJDEBUG\FIELD.OBJDEBUG\SHAPES.OBJDEBUG\TEXTURES.OBJDEBUG\USER.OBJDEBUG\BASE_GAME_WINDOW.OBJDEBUG\BASE_WINDOW.OBJDEBUG\INTELLIGENCE.OBJDEBUG\MAIN.OBJDEBUG\VECTOR_2D.OBJ
